[{
    "name": "Alderaan",
    "rotation_period": "24",
    "orbital_period": "364",
    "diameter": "12500",
    "climate": "temperate",
    "gravity": "1 standard",
    "terrain": "grasslands, mountains",
    "surface_water": "40",
    "population": "2000000000",
    "residents": [
        5,
        68,
        81
    ],
    "films": [
        6,
        1
    ],
    "created": "2014-12-10T11:35:48.479000Z",
    "edited": "2014-12-20T20:58:18.420000Z",
    "planet_id": 2
},
{
    "name": "Yavin IV",
    "rotation_period": "24",
    "orbital_period": "4818",
    "diameter": "10200",
    "climate": "temperate, tropical",
    "gravity": "1 standard",
    "terrain": "jungle, rainforests",
    "surface_water": "8",
    "population": "1000",
    "residents": [],
    "films": [
        1
    ],
    "created": "2014-12-10T11:37:19.144000Z",
    "edited": "2014-12-20T20:58:18.421000Z",
    "planet_id": 3
},
{
    "name": "Hoth",
    "rotation_period": "23",
    "orbital_period": "549",
    "diameter": "7200",
    "climate": "frozen",
    "gravity": "1.1 standard",
    "terrain": "tundra, ice caves, mountain ranges",
    "surface_water": "100",
    "population": "unknown",
    "residents": [],
    "films": [
        2
    ],
    "created": "2014-12-10T11:39:13.934000Z",
    "edited": "2014-12-20T20:58:18.423000Z",
    "planet_id": 4
},
{
    "name": "Dagobah",
    "rotation_period": "23",
    "orbital_period": "341",
    "diameter": "8900",
    "climate": "murky",
    "gravity": "N/A",
    "terrain": "swamp, jungles",
    "surface_water": "8",
    "population": "unknown",
    "residents": [],
    "films": [
        2,
        6,
        3
    ],
    "created": "2014-12-10T11:42:22.590000Z",
    "edited": "2014-12-20T20:58:18.425000Z",
    "planet_id": 5
},
{
    "name": "Bespin",
    "rotation_period": "12",
    "orbital_period": "5110",
    "diameter": "118000",
    "climate": "temperate",
    "gravity": "1.5 (surface), 1 standard (Cloud City)",
    "terrain": "gas giant",
    "surface_water": "0",
    "population": "6000000",
    "residents": [
        26
    ],
    "films": [
        2
    ],
    "created": "2014-12-10T11:43:55.240000Z",
    "edited": "2014-12-20T20:58:18.427000Z",
    "planet_id": 6
},
{
    "name": "Endor",
    "rotation_period": "18",
    "orbital_period": "402",
    "diameter": "4900",
    "climate": "temperate",
    "gravity": "0.85 standard",
    "terrain": "forests, mountains, lakes",
    "surface_water": "8",
    "population": "30000000",
    "residents": [
        30
    ],
    "films": [
        3
    ],
    "created": "2014-12-10T11:50:29.349000Z",
    "edited": "2014-12-20T20:58:18.429000Z",
    "planet_id": 7
},
{
    "name": "Naboo",
    "rotation_period": "26",
    "orbital_period": "312",
    "diameter": "12120",
    "climate": "temperate",
    "gravity": "1 standard",
    "terrain": "grassy hills, swamps, forests, mountains",
    "surface_water": "12",
    "population": "4500000000",
    "residents": [
        3,
        21,
        36,
        37,
        38,
        39,
        42,
        60,
        61,
        66,
        35
    ],
    "films": [
        5,
        4,
        6,
        3
    ],
    "created": "2014-12-10T11:52:31.066000Z",
    "edited": "2014-12-20T20:58:18.430000Z",
    "planet_id": 8
},
{
    "name": "Coruscant",
    "rotation_period": "24",
    "orbital_period": "368",
    "diameter": "12240",
    "climate": "temperate",
    "gravity": "1 standard",
    "terrain": "cityscape, mountains",
    "surface_water": "unknown",
    "population": "1000000000000",
    "residents": [
        34,
        55,
        74
    ],
    "films": [
        5,
        4,
        6,
        3
    ],
    "created": "2014-12-10T11:54:13.921000Z",
    "edited": "2014-12-20T20:58:18.432000Z",
    "planet_id": 9
},
{
    "name": "Kamino",
    "rotation_period": "27",
    "orbital_period": "463",
    "diameter": "19720",
    "climate": "temperate",
    "gravity": "1 standard",
    "terrain": "ocean",
    "surface_water": "100",
    "population": "1000000000",
    "residents": [
        22,
        72,
        73
    ],
    "films": [
        5
    ],
    "created": "2014-12-10T12:45:06.577000Z",
    "edited": "2014-12-20T20:58:18.434000Z",
    "planet_id": 10
},
{
    "name": "Geonosis",
    "rotation_period": "30",
    "orbital_period": "256",
    "diameter": "11370",
    "climate": "temperate, arid",
    "gravity": "0.9 standard",
    "terrain": "rock, desert, mountain, barren",
    "surface_water": "5",
    "population": "100000000000",
    "residents": [
        63
    ],
    "films": [
        5
    ],
    "created": "2014-12-10T12:47:22.350000Z",
    "edited": "2014-12-20T20:58:18.437000Z",
    "planet_id": 11
}]
